%YAML 1.1
%TAG !u! tag:unity3d.com,2011:
--- !u!221 &22100000
AnimatorOverrideController:
  m_ObjectHideFlags: 0
  m_CorrespondingSourceObject: {fileID: 0}
  m_PrefabInstance: {fileID: 0}
  m_PrefabAsset: {fileID: 0}
  m_Name: Humanoid_Controller_Override02
  m_Controller: {fileID: 9100000, guid: 2ea0a9db33027974c967a83184e254c9, type: 2}
  m_Clips:
  - m_OriginalClip: {fileID: 7400000, guid: 8c4ebfb15c5b36d4981d9364cb6cafde, type: 2}
    m_OverrideClip: {fileID: 7400000, guid: d3252ec6ec4348449970ed9c43b71a1d, type: 2}
  - m_OriginalClip: {fileID: 7400000, guid: 2a0f61efc3e0b9244ac12a4190af6de3, type: 2}
    m_OverrideClip: {fileID: 7400000, guid: e98f0377bfa1e8248826dab573938e72, type: 2}
  - m_OriginalClip: {fileID: 7400000, guid: d6c05a92d63e3c24db286d32b92290e5, type: 2}
    m_OverrideClip: {fileID: 7400000, guid: 3a16b59436deb8f41a22f2d42f5eec86, type: 2}
